participant;tlx_md_baseline;tlx_md_hud;tlx_md_ar;tlx_pd_baseline;tlx_pd_hud;tlx_pd_ar;tlx_td_baseline;tlx_td_hud;tlx_td_ar;tlx_p_baseline;tlx_p_hud;tlx_p_ar;tlx_e_baseline;tlx_e_hud;tlx_e_ar;tlx_f_baseline;tlx_f_hud;tlx_f_ar;tlx_o_baseline;tlx_o_hud;tlx_o_ar
1;80;75;85;65;75;85;70;20;85;20;20;30;40;60;95;60;35;85;55,83333333;47,5;77,5
2;30;35;30;10;40;40;35;40;30;50;40;30;10;40;50;35;35;40;28,33333333;38,33333333;36,66666667
3;20;20;40;20;25;55;50;40;35;25;25;40;45;40;65;30;35;60;31,66666667;30,83333333;49,16666667
4;60;70;90;60;65;90;50;60;85;35;70;75;60;70;85;60;80;100;54,16666667;69,16666667;87,5
5;35;45;55;55;60;65;40;50;50;30;35;60;50;40;30;35;40;50;40,83333333;45;51,66666667
6;20;30;40;15;20;20;30;40;60;20;30;30;20;30;30;15;20;30;20;28,33333333;35
7;50;90;95;25;45;65;95;65;25;40;50;65;75;85;85;60;70;80;57,5;67,5;69,16666667
8;25;35;40;15;25;25;20;30;30;60;40;80;50;40;75;20;25;30;31,66666667;32,5;46,66666667
9;65;30;65;65;15;60;35;25;50;50;50;50;65;55;60;50;45;60;55;36,66666667;57,5
10;25;25;35;10;10;15;15;60;20;15;60;45;20;40;40;25;20;55;18,33333333;35,83333333;35
11;10;20;20;15;15;25;20;10;10;20;15;15;15;15;50;10;5;35;15;13,33333333;25,83333333
12;35;40;60;10;20;35;35;40;35;50;45;70;35;60;55;30;30;50;32,5;39,16666667;50,83333333
13;20;35;50;35;45;80;60;40;50;55;65;75;45;65;90;20;60;65;39,16666667;51,66666667;68,33333333
14;55;75;85;25;35;80;75;65;65;35;25;20;70;40;60;50;65;70;51,66666667;50,83333333;63,33333333
15;50;40;65;25;20;25;65;70;65;45;50;50;55;60;70;60;60;70;50;50;57,5
16;15;30;70;10;10;15;55;60;85;35;45;95;25;40;70;40;30;95;30;35,83333333;71,66666667
17;10;25;75;10;20;25;85;20;25;25;35;45;85;70;80;35;40;60;41,66666667;35;51,66666667
18;30;45;55;25;60;90;35;55;60;30;40;45;30;65;55;30;50;60;30;52,5;60,83333333
