participant;wpm_baseline;wpm_hud;wpm_ar;cer_baseline;cer_hud;cer_ar
1;19,57418605;16,494825;12,54664286;0,010953488;0,013275;0,012
2;20,42236957;17,4956;20,94;0,006782609;0,015775;0,014681818
3;25,56273684;17,981675;16,48306061;0,004877193;0,0059;0,012606061
4;18,52478723;14,12460714;14,696;0,012021277;0,0305;0,003028571
5;23,2224;22,07359574;17,51015385;0,00734;0,003744681;0,018717949
6;29,75502941;28,67485938;22,25937736;0,012205882;0,01971875;0,017716981
7;24,74044643;24,89967857;25,27574138;0,00625;0,005910714;0,012086207
8;18,6807234;19,73308511;17,9842093;0;0,017489362;0,043627907
9;19,06973171;17,742425;15,10627586;0,021536585;0,015125;0,021517241
10;24,43045763;19,35891111;16,73064103;0,008;0,0244;0,029307692
11;26,29676563;25,15874074;19,32397959;0,008828125;0,009537037;0,010816327
12;24,76003704;24,56533898;21,23072;0,011018519;0,02620339;0,01888
13;18,05128261;15,29010526;13,87714706;0;0,006842105;0,0025
14;18,62280488;21,16459184;20,40234;0,000390244;0,00922449;0,00706
15;30,21447761;30,39675714;28,85329851;0,004134328;0,009385714;0,006537313
16;23,70957143;19,26731111;16,849175;0,001625;0,008288889;0,05185
17;25,85064583;20,89648837;12,50896875;0,0021875;0,005906977;0,01253125
18;17,68416667;14,86584848;10,5757;0,002190476;0,015606061;0,034566667
