﻿participant;headtiltindeg_baseline;headtiltinddeg_hud
1;-17,57027089;-10,99467753
2;-26,31104801;-14,60412971
3;-11,28901742;-15,70977211
4;31,16768924;-9,656174861
5;-40,09230122;0
6;-116,3713058;-3,079747592
7;0;12,53919814
8;-94,93614039;-38,84891187
9;0;-42,0006605
10;-79,85672058;-31,20960991
11;-36,96505191;-99,11691795
12;2,254650935;5,077221256
13;-38,44725751;-139,2638235
14;-119,2438594;-13,32505595
