﻿participant;relativegazedurationonsmartphone_baseline;relativegazedurationonsmartphone_hud
1;0,787051;0,527498
2;0,253062;0,221017
3;0,0336842;0,125574
5;0,489901;0,211586
6;0,265884;0,0768128
8;0,26867;0,200245
9;0,308835;0,295114
10;0,538679;0,327118
11;0,339456;0,313032
12;0,327302;0,184868
13;0,644223;0,230752
