participant	sart_demand_baseline	sart_demand_hud	sart_supply_baseline	sart_supply_hud	sart_understanding_baseline	sart_understanding_hud	sart_score_baseline	sart_score_hud
1	14	17	22	23	4	3	12	9
2	11	11	14	15	8	4	11	8
3	16	15	22	19	6	7	12	11
4	15	16	21	21	8	4	14	9
5	14	15	17	17	7	7	10	9
6	5	14	18	16	8	5	21	7
7	12	14	17	21	5	4	10	11
8	12	10	24	24	8	5	20	19
9	12	9	17	19	10	9	15	19
10	13	14	19	19	10	5	16	10
11	10	9	14	12	2	3	6	6
12	6	5	24	23	7	8	25	26
13	17	18	21	22	6	9	10	13
14	13	18	22	22	4	5	13	9
