participant;flow_flow_baseline;flow_flow_hud;flow_anx_baseline;flow_anx_hud;flow_chall_baseline;flow_chall_hud
1;4,1;2,9;1;1;4;4
2;4;3,3;6,666666667;6,666666667;5;5
3;4,9;5,1;1;1;4;4
4;3,9;2,6;1;1;4;4
5;5,4;4,9;4;4,333333333;4;4
6;3,4;3;2,333333333;1,333333333;4;4
7;4,4;3,9;3,666666667;3,333333333;5;5
8;5,5;5,1;3;3,666666667;4;4
9;4,8;5,7;5,333333333;5,666666667;4;4
10;4,8;5,7;5,333333333;5,666666667;4;4
11;0;0;0;0;0;0
12;0;0;0;0;0;0
13;0;0;0;0;0;0
14;4,9;4,8;3,333333333;4;5;6
