participant;tlx_md_baseline;tlx_md_hud;tlx_pd_baseline;tlx_pd_hud;tlx_td_baseline;tlx_td_hud;tlx_p_baseline;tlx_p_hud;tlx_e_baseline;tlx_e_hud;tlx_f_baseline;tlx_f_hud;tlx_o_baseline;tlx_o_hud
1;80;90;40;25;20;80;50;30;85;90;50;20;54,16666667;55,83333333
2;90;85;15;15;80;80;90;95;80;85;90;65;74,16666667;70,83333333
3;90;75;85;85;70;80;85;70;85;60;50;5;77,5;62,5
4;95;100;25;15;85;95;30;85;80;85;35;55;58,33333333;72,5
5;85;90;45;85;50;75;25;55;55;75;40;70;50;75
6;45;35;45;50;35;50;75;85;75;85;65;85;56,66666667;65
7;85;90;25;35;75;30;25;25;35;50;70;70;52,5;50
8;90;90;70;65;75;75;30;50;75;75;30;80;61,66666667;72,5
9;45;60;60;65;70;55;35;25;65;65;60;45;55,83333333;52,5
10;70;80;30;30;45;85;70;65;70;80;20;30;50,83333333;61,66666667
11;85;85;20;45;85;45;90;95;55;90;85;85;70;74,16666667
12;60;35;25;10;65;80;40;45;75;45;5;5;45;36,66666667
13;80;80;30;35;50;25;75;70;70;75;35;50;56,66666667;55,83333333
14;85;85;55;50;50;50;55;50;60;65;25;50;55;58,33333333
