participant;wpm_standardkeyboard;wpm_fullscreenkeyboard;cer_standardkeyboard;cer_fullscreenkeyboard
1;12,60212121;15,75760377;0,013878788;0,001754717
2;19,72542553;19,81605882;0,000574468;0,001911765
3;17,05112821;21,24702;0,008897436;0,00482
4;20,2947551;19,3292619;0,013489796;0,005333333
5;22,53974074;25,53487931;0,001537037;0,007224138
6;17,97863158;21,64983019;0,005342105;0,010150943
7;24,47235;29,36984058;0,001333333;0,000652174
8;16,1227;20,8365625;0,00315;0,001833333
9;18,19315;20,78648889;0,01215;0,016311111
10;22,58422449;28,74788333;0,002346939;0
11;21,25846;23,65525;0,00192;0,005980769
12;15,70858824;26,31422222;0,006764706;0,003603175
13;20,60969231;22,99330189;0,003115385;0,002679245
14;11,1852;14,10502632;0,04136;0,042947368
15;24,77104762;21,38108;0,00531746;0,00784
16;27,28888525;27,71381818;0,001295082;0,004272727
